Carly Baretz - Project 3
…
data("mlb")

Research Question: Do pitchers on the Mets or pitchers on the Yankees make more money?

Using the MLB dataset, which shows the salary of every player on a Major League Baseball team in 2010, I plan first selecting all the pitchers on the Mets, and then all the pitchers on the Yankees. After, I plan on finding the average salary and the difference in salaries between the two teams. After I will do a permutation test and plot the permutation distribution and observed difference.

mlb_pitchers <- mlb |>
  filter(team %in% c("New York Mets", "New York Yankees") & position == "Pitcher") |>
  select(team, salary) |>
  drop_na()

mlb_pitchers

# A tibble: 24 × 2
   team          salary
   <fct>          <dbl>
 1 New York Mets 20145.
 2 New York Mets 12167.
 3 New York Mets 12000 
 4 New York Mets  3300 
 5 New York Mets  2900 
 6 New York Mets  1250 
 7 New York Mets  1250 
 8 New York Mets  1000 
 9 New York Mets   975 
10 New York Mets   500 
# ℹ 14 more rows
…
set.seed(47)

perm_stats <- map(1:500, perm_data, data = mlb_pitchers) |>
  list_rbind()

perm_stats

# A tibble: 500 × 2
   perm_ave_diff   rep
           <dbl> <int>
 1        -2410.     1
 2        -3256.     2
 3          869.     3
 4        -2796.     4
 5        -5145.     5
 6         5764.     6
 7        -1841.     7
 8        -3057.     8
 9          428.     9
10        -3170.    10
# ℹ 490 more rows
…
